cov20: A package that launches a shiny app visualizing coronavirus statistics in 2020 • cov20
…
Data3 dataset

This dataset contains information that shows the cumulative cases and deaths for 235 countries. This data is sourced from World Health Organization

The dataset can be accessed by:

library(cov20)
data3
#> # A tibble: 235 x 3
#> # Groups:   Country [235]
#>    Country             `Cumulative cases` `Cumulative deaths`
#>    <chr>                            <int>               <int>
#>  1 Afghanistan                      39422                1466
#>  2 Albania                          14410                 400
#>  3 Algeria                          52270                1768
#>  4 American Samoa                       0                   0
#>  5 Andorra                           2370                  53
#>  6 Angola                            5530                 192
#>  7 Anguilla                             3                   0
#>  8 Antigua and Barbuda                107                   3
#>  9 Argentina                       798486               21018
#> 10 Armenia                          53083                 990
#> # … with 225 more rows
…
Data5 dataset

This dataset displays the changes in cumulative cases in all Australian states over a time period of February 2020 to October 2020. This data is sourced from HDX

The dataset can be accessed by:

library(cov20)
data5
#> # A tibble: 2,080 x 5
#>    State                          Lat  Long Date       `Cumulative Cases`
#>    <chr>                        <dbl> <dbl> <date>                  <dbl>
#>  1 Australian Capital Territory -35.5  149. 2020-01-22                  0
#>  2 Australian Capital Territory -35.5  149. 2020-01-23                  0
#>  3 Australian Capital Territory -35.5  149. 2020-01-24                  0
#>  4 Australian Capital Territory -35.5  149. 2020-01-25                  0
#>  5 Australian Capital Territory -35.5  149. 2020-01-26                  0
#>  6 Australian Capital Territory -35.5  149. 2020-01-27                  0
#>  7 Australian Capital Territory -35.5  149. 2020-01-28                  0
#>  8 Australian Capital Territory -35.5  149. 2020-01-29                  0
#>  9 Australian Capital Territory -35.5  149. 2020-01-30                  0
#> 10 Australian Capital Territory -35.5  149. 2020-01-31                  0
#> # … with 2,070 more rows
…
